ID,coor_x,coor_y,name
0,423,564,"Wyszyńskiego"
1,332,43,"Małachowskiego"
2,666,699,"Olbrachta"
3,765,444,"św. Józefa"
4,923,98,"Boboli"
5,123,456,"Aleja 1000-lecia"
6,553,80,"Manhattan"
7,443,576,"Wilanów"
8,333,718,"Praga"
9,203,578,"Dworzec Główny"
10,420,69,"Politechnika"
11,210,370,"Uniwersytet"
12,130,370,"Wiejska"
13,524,86,"Wrzosy"
14,590,700,"Pola Elizejskie"
15,520,142,"Bydgoskie Przedmieście"
16,405,544,"Tomasza Wilgotnego Silnika"
17,603,209,"Deyny"
18,804,256,"Alberta Epsteina"
19,405,599,"Jerzego Zięby"